Creating your own functions in R
…
library(dplyr)
#> 
#> Attaching package: 'dplyr'
#> The following objects are masked from 'package:stats':
#> 
#>     filter, lag
#> The following objects are masked from 'package:base':
#> 
#>     intersect, setdiff, setequal, union
gapminder %>% 
    select(continent, year, pop) %>% 
    group_by(continent, year) %>% 
    summarise(mean(pop))
#> # A tibble: 60 x 3
#> # Groups:   continent [?]
#>    continent  year `mean(pop)`
#>    <fct>     <int>       <dbl>
#>  1 Africa     1952    4570010.
#>  2 Africa     1957    5093033.
#>  3 Africa     1962    5702247.
#>  4 Africa     1967    6447875.
#>  5 Africa     1972    7305376.
#>  6 Africa     1977    8328097.
#>  7 Africa     1982    9602857.
#>  8 Africa     1987   11054502.
#>  9 Africa     1992   12674645.
#> 10 Africa     1997   14304480.
#> # ... with 50 more rows

… and do this again but change pop to another variable, we can create a function.

# First:
gapminder %>% 
    select(continent, year, pop) %>% 
    group_by(continent, year) %>% 
    summarise(mean(pop))
#> # A tibble: 60 x 3
#> # Groups:   continent [?]
#>    continent  year `mean(pop)`
#>    <fct>     <int>       <dbl>
#>  1 Africa     1952    4570010.
#>  2 Africa     1957    5093033.
#>  3 Africa     1962    5702247.
#>  4 Africa     1967    6447875.
#>  5 Africa     1972    7305376.
#>  6 Africa     1977    8328097.
#>  7 Africa     1982    9602857.
#>  8 Africa     1987   11054502.
#>  9 Africa     1992   12674645.
#> 10 Africa     1997   14304480.
#> # ... with 50 more rows
…
mean_by_continent <- function(data, variable) {
    by_continent <- data %>%
        select_at(c("continent", "year", variable)) %>%
        group_by(continent, year) %>%
        # This needs to change order a bit, since the mean will be applied to
        # the variable.
        summarise_at(variable, mean)
    return(by_continent)
}

And we can use it:

mean_by_continent(gapminder, "lifeExp")
#> # A tibble: 60 x 3
#> # Groups:   continent [?]
#>    continent  year lifeExp
#>    <fct>     <int>   <dbl>
#>  1 Africa     1952    39.1
#>  2 Africa     1957    41.3
#>  3 Africa     1962    43.3
#>  4 Africa     1967    45.3
#>  5 Africa     1972    47.5
#>  6 Africa     1977    49.6
#>  7 Africa     1982    51.6
#>  8 Africa     1987    53.3
#>  9 Africa     1992    53.6
#> 10 Africa     1997    53.6
#> # ... with 50 more rows
mean_by_continent(gapminder, "pop")
#> # A tibble: 60 x 3
#> # Groups:   continent [?]
#>    continent  year       pop
#>    <fct>     <int>     <dbl>
#>  1 Africa     1952  4570010.
#>  2 Africa     1957  5093033.
#>  3 Africa     1962  5702247.
#>  4 Africa     1967  6447875.
#>  5 Africa     1972  7305376.
#>  6 Africa     1977  8328097.
#>  7 Africa     1982  9602857.
#>  8 Africa     1987 11054502.
#>  9 Africa     1992 12674645.
#> 10 Africa     1997 14304480.
#> # ... with 50 more rows
mean_by_continent(gapminder, c("pop", "lifeExp"))
#> # A tibble: 60 x 4
#> # Groups:   continent [?]
#>    continent  year       pop lifeExp
#>    <fct>     <int>     <dbl>   <dbl>
#>  1 Africa     1952  4570010.    39.1
#>  2 Africa     1957  5093033.    41.3
#>  3 Africa     1962  5702247.    43.3
#>  4 Africa     1967  6447875.    45.3
#>  5 Africa     1972  7305376.    47.5
#>  6 Africa     1977  8328097.    49.6
#>  7 Africa     1982  9602857.    51.6
#>  8 Africa     1987 11054502.    53.3
#>  9 Africa     1992 12674645.    53.6
#> 10 Africa     1997 14304480.    53.6
#> # ... with 50 more rows
…
