Work with and manage your data efficiently in R with dplyr and tidyr
…
Final exercise: Try to replicate an output.

Time: Until end of the session.

Copy the code below and run it to get the dataset to use for this exercise. Using everything you learned in this session, try to recreate the table below from the dataset given.

library(ggplot2)
economics_data <- economics %>% 
    # get the year information
    mutate(year = as.numeric(substr(date, 0, 4))) %>% 
    as_tibble()
economics_data
#> # A tibble: 574 x 7
#>    date         pce    pop psavert uempmed unemploy  year
#>    <date>     <dbl>  <int>   <dbl>   <dbl>    <int> <dbl>
#>  1 1967-07-01  507. 198712    12.5     4.5     2944  1967
#>  2 1967-08-01  510. 198911    12.5     4.7     2945  1967
#>  3 1967-09-01  516. 199113    11.7     4.6     2958  1967
#>  4 1967-10-01  513. 199311    12.5     4.9     3143  1967
#>  5 1967-11-01  518. 199498    12.5     4.7     3066  1967
#>  6 1967-12-01  526. 199657    12.1     4.8     3018  1967
#>  7 1968-01-01  532. 199808    11.7     5.1     2878  1968
#>  8 1968-02-01  534. 199920    12.2     4.5     3001  1968
#>  9 1968-03-01  545. 200056    11.6     4.1     2877  1968
#> 10 1968-04-01  545. 200208    12.2     4.6     2709  1968
#> # ... with 564 more rows
…
